{
  "development": {
    "localBaseUrl": "https://be83c031.ngrok.io",
    "usePublicKey": false,
    "watch": false,
    "port": 3000,
    "maxTokenAge": 86400,
    //"avatarId": "custom_id",
    //"avatarFileName" : "avatar.png",
    //"avatarExpiryTime" : 86400,
    "store": {
      "adapter": "jugglingdb",
      "type": "postgres",
      "url": "postgres://localhost/room_service"
    }
  },

  "production": {
    "usePublicKey": false,
    "port": 8080,
    "localBaseUrl": "https://$MICROS_SERVICE.$ZONE",
    "store": {
      "adapter": "jugglingdb",
      "type": "postgres-atlassian",
      "url": "$PG_DATABASE_URL"
    },
    "whitelist": [
      "*.hipchat.com"
    ]
  }
}
